{
    "current_page": 1,
    "data": [{
        "id": 596,
        "transaksi_pembelian_id": 77,
        "customer_id": null,
        "nama": null,
        "jumlah": 1,
        "harga": 1,
        "cod": null,
        "tanggal": 1709510400,
        "customer": null,
        "pembelian": {
            "id": 77,
            "master_item_id": 1,
            "supplier": "CV PADMA JAYA",
            "batch": "31JAN2024",
            "jumlah": 1178,
            "sisa": 1037,
            "het": null,
            "harga": 55071500,
            "tanggal": 1706659200,
            "barang": {
                "id": 1,
                "item_id": 1,
                "kategori_id": 8,
                "item": {
                    "id": 1,
                    "kode": "082322MBK8LZ0",
                    "nama": "MPX 2 (10W30 SLMB 0,8L REP)",
                    "stock": 1037
                },
                "kategori": {
                    "id": 8,
                    "nama": "OLI & BAN",
                    "toko": "SGH_Motor"
                }
            }
        }
    }, {
        "id": 553,
        "transaksi_pembelian_id": 52,
        "customer_id": 1,
        "nama": "MAS NANANG",
        "jumlah": 1,
        "harga": 55000,
        "cod": null,
        "tanggal": 1708992000,
        "customer": {
            "id": 1,
            "nama": "Nanang",
            "nomor": null,
            "module": "pinjaman"
        },
        "pembelian": {
            "id": 52,
            "master_item_id": 968,
            "supplier": "MPM",
            "batch": "31JAN2024",
            "jumlah": 19,
            "sisa": 8,
            "het": null,
            "harga": 846450,
            "tanggal": 1706659200,
            "barang": {
                "id": 968,
                "item_id": 968,
                "kategori_id": 1,
                "item": {
                    "id": 968,
                    "kode": "43130KZL930",
                    "nama": "BRAKE SHOE",
                    "stock": 8
                },
                "kategori": {
                    "id": 1,
                    "nama": "HONDA",
                    "toko": "SGH_Motor"
                }
            }
        }
    }, {
        "id": 554,
        "transaksi_pembelian_id": 284,
        "customer_id": 1,
        "nama": "Mutiara",
        "jumlah": 1,
        "harga": 75000,
        "cod": null,
        "tanggal": 1708992000,
        "customer": {
            "id": 1,
            "nama": "Nanang",
            "nomor": null,
            "module": "pinjaman"
        },
        "pembelian": {
            "id": 284,
            "master_item_id": 601,
            "supplier": "PT PURI WIRA MAHKOTA",
            "batch": "31JAN2024",
            "jumlah": 3,
            "sisa": 1,
            "het": 86000,
            "harga": 193500,
            "tanggal": 1706659200,
            "barang": {
                "id": 601,
                "item_id": 601,
                "kategori_id": 4,
                "item": {
                    "id": 601,
                    "kode": "WIN1114",
                    "nama": " FRONT HANDLE COVER SUPRA X 125 07 HITAM",
                    "stock": 1
                },
                "kategori": {
                    "id": 4,
                    "nama": "WIN",
                    "toko": "SGH_Motor"
                }
            }
        }
    }, {
        "id": 555,
        "transaksi_pembelian_id": 502,
        "customer_id": 1,
        "nama": "Mutiara",
        "jumlah": 1,
        "harga": 180000,
        "cod": null,
        "tanggal": 1708992000,
        "customer": {
            "id": 1,
            "nama": "Nanang",
            "nomor": null,
            "module": "pinjaman"
        },
        "pembelian": {
            "id": 502,
            "master_item_id": 689,
            "supplier": "PT PURI WIRA MAHKOTA",
            "batch": "31JAN2024",
            "jumlah": 1,
            "sisa": 0,
            "het": 206000,
            "harga": 154500,
            "tanggal": 1706659200,
            "barang": {
                "id": 689,
                "item_id": 689,
                "kategori_id": 4,
                "item": {
                    "id": 689,
                    "kode": "WIN1200",
                    "nama": "COVER BODY SUPRA X 125 07 HITAM + COVER STOP ",
                    "stock": 0
                },
                "kategori": {
                    "id": 4,
                    "nama": "WIN",
                    "toko": "SGH_Motor"
                }
            }
        }
    }, {
        "id": 556,
        "transaksi_pembelian_id": 504,
        "customer_id": 1,
        "nama": "PAK ABU",
        "jumlah": 1,
        "harga": 29000,
        "cod": null,
        "tanggal": 1708992000,
        "customer": {
            "id": 1,
            "nama": "Nanang",
            "nomor": null,
            "module": "pinjaman"
        },
        "pembelian": {
            "id": 504,
            "master_item_id": 1449,
            "supplier": "PT ASTRA OTOPARTS",
            "batch": "12FEB2024",
            "jumlah": 10,
            "sisa": 9,
            "het": 29000,
            "harga": 234900,
            "tanggal": 1707696000,
            "barang": {
                "id": 1449,
                "item_id": 1518,
                "kategori_id": 18,
                "item": {
                    "id": 1518,
                    "kode": "H2-16155-KRS-1100",
                    "nama": "VALVE FLOAT",
                    "stock": 9
                },
                "kategori": {
                    "id": 18,
                    "nama": "ASPIRA",
                    "toko": "SGH_Motor"
                }
            }
        }
    }, {
        "id": 557,
        "transaksi_pembelian_id": 505,
        "customer_id": 1,
        "nama": "PAK ABU",
        "jumlah": 1,
        "harga": 117000,
        "cod": null,
        "tanggal": 1708992000,
        "customer": {
            "id": 1,
            "nama": "Nanang",
            "nomor": null,
            "module": "pinjaman"
        },
        "pembelian": {
            "id": 505,
            "master_item_id": 1458,
            "supplier": "PT ASTRA OTOPARTS",
            "batch": "12FEB2024",
            "jumlah": 5,
            "sisa": 4,
            "het": 123000,
            "harga": 498150,
            "tanggal": 1707696000,
            "barang": {
                "id": 1458,
                "item_id": 1527,
                "kategori_id": 18,
                "item": {
                    "id": 1527,
                    "kode": "H2-22201-KY1-1700",
                    "nama": "DISK SET CLUTCH 4",
                    "stock": 4
                },
                "kategori": {
                    "id": 18,
                    "nama": "ASPIRA",
                    "toko": "SGH_Motor"
                }
            }
        }
    }],
    "first_page_url": "http:\/\/192.168.18.85\/motor\/penjualan?page=1",
    "from": 1,
    "last_page": 78,
    "last_page_url": "http:\/\/192.168.18.85\/motor\/penjualan?page=78",
    "links": [{
        "url": null,
        "label": "&laquo; Previous",
        "active": false
    }, {
        "url": "http:\/\/192.168.18.85\/motor\/penjualan?page=1",
        "label": "1",
        "active": true
    }, {
        "url": "http:\/\/192.168.18.85\/motor\/penjualan?page=2",
        "label": "2",
        "active": false
    }, {
        "url": "http:\/\/192.168.18.85\/motor\/penjualan?page=3",
        "label": "3",
        "active": false
    }, {
        "url": "http:\/\/192.168.18.85\/motor\/penjualan?page=4",
        "label": "4",
        "active": false
    }, {
        "url": "http:\/\/192.168.18.85\/motor\/penjualan?page=5",
        "label": "5",
        "active": false
    }, {
        "url": "http:\/\/192.168.18.85\/motor\/penjualan?page=6",
        "label": "6",
        "active": false
    }, {
        "url": "http:\/\/192.168.18.85\/motor\/penjualan?page=7",
        "label": "7",
        "active": false
    }, {
        "url": "http:\/\/192.168.18.85\/motor\/penjualan?page=8",
        "label": "8",
        "active": false
    }, {
        "url": "http:\/\/192.168.18.85\/motor\/penjualan?page=9",
        "label": "9",
        "active": false
    }, {
        "url": "http:\/\/192.168.18.85\/motor\/penjualan?page=10",
        "label": "10",
        "active": false
    }, {
        "url": null,
        "label": "...",
        "active": false
    }, {
        "url": "http:\/\/192.168.18.85\/motor\/penjualan?page=77",
        "label": "77",
        "active": false
    }, {
        "url": "http:\/\/192.168.18.85\/motor\/penjualan?page=78",
        "label": "78",
        "active": false
    }, {
        "url": "http:\/\/192.168.18.85\/motor\/penjualan?page=2",
        "label": "Next &raquo;",
        "active": false
    }],
    "next_page_url": "http:\/\/192.168.18.85\/motor\/penjualan?page=2",
    "path": "http:\/\/192.168.18.85\/motor\/penjualan",
    "per_page": 6,
    "prev_page_url": null,
    "to": 6,
    "total": 468
}
